{
	"info": {
		"_postman_id": "4c821b2e-3a77-4705-8f37-278b335e668b",
		"name": "March Madness Mayhem",
		"schema": "https://schema.getpostman.com/json/collection/v2.1.0/collection.json",
		"_exporter_id": "25819027"
	},
	"item": [
		{
			"name": "Championship Games",
			"event": [
				{
					"listen": "test",
					"script": {
						"exec": [
							"pm.test(\"Status test\", function () {\r",
							"    pm.response.to.have.status(200);\r",
							"});\r",
							"\r",
							"pm.test(\"Data in return\", function () {\r",
							"    pm.expect(pm.response.text()).to.include(\"data\");\r",
							"});\r",
							"\r",
							"pm.test(\"Proper amount returned\", function () {\r",
							"    var jsonData = pm.response.json();\r",
							"    pm.expect(jsonData.data.length).to.eql(84);\r",
							"});"
						],
						"type": "text/javascript"
					}
				}
			],
			"request": {
				"method": "GET",
				"header": [],
				"url": {
					"raw": "https://api.marchmadnessmayhem.me/championships",
					"protocol": "https",
					"host": [
						"api",
						"marchmadnessmayhem",
						"me"
					],
					"path": [
						"championships"
					]
				}
			},
			"response": [
				{
					"name": "Championship Games",
					"originalRequest": {
						"method": "GET",
						"header": [],
						"url": {
							"raw": "https://api.marchmadnessmayhem.me/championships",
							"protocol": "https",
							"host": [
								"api",
								"marchmadnessmayhem",
								"me"
							],
							"path": [
								"championships"
							]
						}
					},
					"_postman_previewlanguage": "json",
					"header": [
						{
							"key": "Content-Type",
							"value": "application/json",
							"name": "Content-Type",
							"description": "",
							"type": "text"
						}
					],
					"cookie": [],
					"body": "{\r\n  \"championship games\": [\r\n    {\r\n      \"Year\": 2022,\r\n      \"Winner\": \"Kansas Jayhawks\",\r\n      \"Runner-up\": \"North Carolina Tar Heels\",\r\n      \"Winner score\": 72,\r\n      \"Runner-up score\":  69,\r\n      \"Location\": \"Caesars Superdome, New Orleans, Louisiana\",\r\n      \"MOP\": \"Ochai Agbaji\"\r\n    }\r\n  ]\r\n}"
				}
			]
		},
		{
			"name": "Championship Games by Year",
			"event": [
				{
					"listen": "test",
					"script": {
						"exec": [
							"pm.test(\"Status test\", function () {\r",
							"    pm.response.to.have.status(200);\r",
							"});\r",
							"\r",
							"pm.test(\"Data in return\", function () {\r",
							"    pm.expect(pm.response.text()).to.include(\"data\");\r",
							"});\r",
							"\r",
							"pm.test(\"Returned Correct Champion\", function () {\r",
							"    var jsonData = pm.response.json();\r",
							"    pm.expect(jsonData.data.champion).to.eql(\"Kansas\");\r",
							"});"
						],
						"type": "text/javascript"
					}
				}
			],
			"request": {
				"method": "GET",
				"header": [],
				"url": {
					"raw": "https://api.marchmadnessmayhem.me/championships/2022",
					"protocol": "https",
					"host": [
						"api",
						"marchmadnessmayhem",
						"me"
					],
					"path": [
						"championships",
						"2022"
					]
				}
			},
			"response": [
				{
					"name": "Championship Games by Year",
					"originalRequest": {
						"method": "GET",
						"header": [],
						"url": {
							"raw": "https://api.marchmadnessmayhem.me/championships/2022",
							"protocol": "https",
							"host": [
								"api",
								"marchmadnessmayhem",
								"me"
							],
							"path": [
								"championships",
								"2022"
							]
						}
					},
					"_postman_previewlanguage": "json",
					"header": [
						{
							"key": "Content-Type",
							"value": "application/json",
							"name": "Content-Type",
							"description": "",
							"type": "text"
						}
					],
					"cookie": [],
					"body": "{\n    \"Year\": 2003,\n    \"Winner\": \"Syracuse\",\n    \"Runner-up\": \"Kansas\",\n    \"Winner score\": 81,\n    \"Runner-up score\": 78,\n    \"Location\": \"Superdome, New Orleans\",\n    \"MOP\": \"Carmelo Anthony\"\n}"
				}
			]
		},
		{
			"name": "All Teams",
			"event": [
				{
					"listen": "test",
					"script": {
						"exec": [
							"pm.test(\"Status test\", function () {\r",
							"    pm.response.to.have.status(200);\r",
							"});\r",
							"\r",
							"pm.test(\"Data in return\", function () {\r",
							"    pm.expect(pm.response.text()).to.include(\"data\");\r",
							"});\r",
							"\r",
							"pm.test(\"Proper amount returned\", function () {\r",
							"    var jsonData = pm.response.json();\r",
							"    pm.expect(jsonData.data.length).to.eql(1156);\r",
							"});"
						],
						"type": "text/javascript"
					}
				}
			],
			"request": {
				"method": "GET",
				"header": [],
				"url": {
					"raw": "https://api.marchmadnessmayhem.me/teams",
					"protocol": "https",
					"host": [
						"api",
						"marchmadnessmayhem",
						"me"
					],
					"path": [
						"teams"
					]
				}
			},
			"response": [
				{
					"name": "All Teams",
					"originalRequest": {
						"method": "GET",
						"header": [],
						"url": {
							"raw": "https://api.marchmadnessmayhem.me/teams",
							"protocol": "https",
							"host": [
								"api",
								"marchmadnessmayhem",
								"me"
							],
							"path": [
								"teams"
							]
						}
					},
					"_postman_previewlanguage": "json",
					"header": [
						{
							"key": "Content-Type",
							"value": "application/json",
							"name": "Content-Type",
							"description": "",
							"type": "text"
						}
					],
					"cookie": [],
					"body": "{\n    \"teams:\":[\n    {\n        \"TeamID\": 1,\n        \"School\": \"SMU\",\n        \"Name\": \"Mustangs\",\n        \"ApRank\": null,\n        \"Wins\": 9,\n        \"Losses\": 17,\n        \"ConferenceWins\": 4,\n        \"ConferenceLosses\": 9,\n        \"Conference\": \"American Athletic\",\n        \"Stadium\": {\n            \"Name\": \"Moody Coliseum\",\n            \"City\": \"Dallas\",\n            \"State\": \"TX\"\n        }\n    }\n    ]\n}"
				}
			]
		},
		{
			"name": "Get Teams by ID",
			"event": [
				{
					"listen": "test",
					"script": {
						"exec": [
							"pm.test(\"Status test\", function () {\r",
							"    pm.response.to.have.status(200);\r",
							"});\r",
							"\r",
							"pm.test(\"Data in return\", function () {\r",
							"    pm.expect(pm.response.text()).to.include(\"data\");\r",
							"});\r",
							"\r",
							"pm.test(\"Returned correct team\", function () {\r",
							"    var jsonData = pm.response.json();\r",
							"    pm.expect(jsonData.data.school).to.eql(\"SMU\");\r",
							"});"
						],
						"type": "text/javascript"
					}
				}
			],
			"request": {
				"method": "GET",
				"header": [],
				"url": {
					"raw": "https://api.marchmadnessmayhem.me/teams/1",
					"protocol": "https",
					"host": [
						"api",
						"marchmadnessmayhem",
						"me"
					],
					"path": [
						"teams",
						"1"
					]
				}
			},
			"response": [
				{
					"name": "Get Teams by ID",
					"originalRequest": {
						"method": "GET",
						"header": [],
						"url": {
							"raw": "https://api.marchmadnessmayhem.me/teams/1",
							"protocol": "https",
							"host": [
								"api",
								"marchmadnessmayhem",
								"me"
							],
							"path": [
								"teams",
								"1"
							]
						}
					},
					"_postman_previewlanguage": "json",
					"header": [
						{
							"key": "Content-Type",
							"value": "application/json",
							"name": "Content-Type",
							"description": "",
							"type": "text"
						}
					],
					"cookie": [],
					"body": "{\r\n    \"TeamID\": 109,\r\n    \"School\": \"Texas\",\r\n    \"Name\": \"Longhorns\",\r\n    \"ApRank\": 6,\r\n    \"Wins\": 20,\r\n    \"Losses\": 6,\r\n    \"ConferenceWins\": 9,\r\n    \"ConferenceLosses\": 4,\r\n    \"Conference\": \"Big 12\",\r\n    \"Stadium\": {\r\n        \"Name\": \"Moody Center\",\r\n        \"City\": \"Austin\",\r\n        \"State\": \"TX\"\r\n    }\r\n}"
				}
			]
		},
		{
			"name": "All Players",
			"event": [
				{
					"listen": "test",
					"script": {
						"exec": [
							"pm.test(\"Status test\", function () {\r",
							"    pm.response.to.have.status(200);\r",
							"});\r",
							"\r",
							"pm.test(\"Data in return\", function () {\r",
							"    pm.expect(pm.response.text()).to.include(\"data\");\r",
							"});\r",
							"\r",
							"pm.test(\"Proper amount returned\", function () {\r",
							"    var jsonData = pm.response.json();\r",
							"    pm.expect(jsonData.data.length).to.eql(7906);\r",
							"});"
						],
						"type": "text/javascript"
					}
				}
			],
			"request": {
				"method": "GET",
				"header": [],
				"url": {
					"raw": "https://api.marchmadnessmayhem.me/players",
					"protocol": "https",
					"host": [
						"api",
						"marchmadnessmayhem",
						"me"
					],
					"path": [
						"players"
					]
				}
			},
			"response": [
				{
					"name": "All Players",
					"originalRequest": {
						"method": "GET",
						"header": [],
						"url": {
							"raw": "https://api.marchmadnessmayhem.me/players",
							"protocol": "https",
							"host": [
								"api",
								"marchmadnessmayhem",
								"me"
							],
							"path": [
								"players"
							]
						}
					},
					"_postman_previewlanguage": "json",
					"header": [
						{
							"key": "Content-Type",
							"value": "application/json",
							"name": "Content-Type",
							"description": "",
							"type": "text"
						}
					],
					"cookie": [],
					"body": "{\n    \"players:\": [\n        {\n            \"player_id\": 13424,\n            \"name\": \"Anthony Barber\",\n            \"position\": \"G\",\n            \"team\": \"NC State\",\n            \"height\": 74,\n            \"PPG\": 14.5,\n            \"APG\": 3.9, \n            \"RPG\": 3.3\n        }\n    ]\n}"
				}
			]
		},
		{
			"name": "Get Player by ID",
			"event": [
				{
					"listen": "test",
					"script": {
						"exec": [
							"pm.test(\"Status test\", function () {\r",
							"    pm.response.to.have.status(200);\r",
							"});\r",
							"\r",
							"pm.test(\"Data in return\", function () {\r",
							"    pm.expect(pm.response.text()).to.include(\"data\");\r",
							"});\r",
							"\r",
							"pm.test(\"Returned correct player\", function () {\r",
							"    var jsonData = pm.response.json();\r",
							"    pm.expect(jsonData.data.name).to.eql(\"Jalen Reynolds\");\r",
							"});"
						],
						"type": "text/javascript"
					}
				}
			],
			"request": {
				"method": "GET",
				"header": [],
				"url": {
					"raw": "https://api.marchmadnessmayhem.me/players/60000075",
					"protocol": "https",
					"host": [
						"api",
						"marchmadnessmayhem",
						"me"
					],
					"path": [
						"players",
						"60000075"
					]
				}
			},
			"response": [
				{
					"name": "Get Player by ID",
					"originalRequest": {
						"method": "GET",
						"header": [],
						"url": {
							"raw": "https://api.marchmadnessmayhem.me/players/60000075",
							"protocol": "https",
							"host": [
								"api",
								"marchmadnessmayhem",
								"me"
							],
							"path": [
								"players",
								"60000075"
							]
						}
					},
					"_postman_previewlanguage": "json",
					"header": [
						{
							"key": "Content-Type",
							"value": "application/json",
							"name": "Content-Type",
							"description": "",
							"type": "text"
						}
					],
					"cookie": [],
					"body": "{\n    \"player_id\": 5,\n    \"name\": \"Marcus Carr\",\n    \"position\": \"G\",\n    \"team\": \"Texas\",\n    \"height\": 74,\n    \"PPG\": 14.4,\n    \"APG\": 4.6,\n    \"RPG\": 3.4 \n}"
				}
			]
		},
		{
			"name": "Search All",
			"event": [
				{
					"listen": "test",
					"script": {
						"exec": [
							"pm.test(\"Status code is 200\", function () {\r",
							"    pm.response.to.have.status(200);\r",
							"});\r",
							"\r",
							"pm.test(\"championships, players, and teams in return\", function () {\r",
							"    pm.expect(pm.response.text()).to.include(\"championships\");\r",
							"    pm.expect(pm.response.text()).to.include(\"players\");\r",
							"    pm.expect(pm.response.text()).to.include(\"teams\");\r",
							"});\r",
							"\r",
							"pm.test(\"Proper amount returned\", function () {\r",
							"    var jsonData = pm.response.json();\r",
							"    pm.expect(jsonData.championships.length).to.eql(9);\r",
							"    pm.expect(jsonData.players.length).to.eql(0);\r",
							"    pm.expect(jsonData.teams.length).to.eql(21);\r",
							"});"
						],
						"type": "text/javascript"
					}
				}
			],
			"request": {
				"method": "GET",
				"header": [],
				"url": {
					"raw": "api.marchmadnessmayhem.me/search/Texas",
					"host": [
						"api",
						"marchmadnessmayhem",
						"me"
					],
					"path": [
						"search",
						"Texas"
					]
				}
			},
			"response": [
				{
					"name": "Search All",
					"originalRequest": {
						"method": "GET",
						"header": [],
						"url": {
							"raw": "api.marchmadnessmayhem.me/search/Texas",
							"host": [
								"api",
								"marchmadnessmayhem",
								"me"
							],
							"path": [
								"search",
								"Texas"
							]
						}
					},
					"_postman_previewlanguage": null,
					"header": null,
					"cookie": [],
					"body": "{\r\n  \"championships\": [\r\n    {\r\n      \"champion\": \"UCLA\",\r\n      \"coach\": \"John Wooden\",\r\n      \"id\": \"1971\",\r\n      \"location\": \"Houston, Texas\",\r\n      \"replayUrl\": null,\r\n      \"runnerup\": \"Villanova\",\r\n      \"score\": \"68-62\"\r\n    },\r\n    {\r\n      \"champion\": \"Louisville\",\r\n      \"coach\": \"Denny Crum\",\r\n      \"id\": \"1986\",\r\n      \"location\": \"Dallas, Texas\",\r\n      \"replayUrl\": null,\r\n      \"runnerup\": \"Duke\",\r\n      \"score\": \"72-69\"\r\n    },\r\n    {\r\n      \"champion\": \"Kentucky\",\r\n      \"coach\": \"Tubby Smith\",\r\n      \"id\": \"1998\",\r\n      \"location\": \"San Antonio, Texas\",\r\n      \"replayUrl\": \"https://www.youtube.com/watch?v=YP4x5H4n5G8\",\r\n      \"runnerup\": \"Utah\",\r\n      \"score\": \"78-69\"\r\n    },\r\n    {\r\n      \"champion\": \"Connecticu\",\r\n      \"coach\": \"Jim Calhoun\",\r\n      \"id\": \"2004\",\r\n      \"location\": \"San Antonio, Texas\",\r\n      \"replayUrl\": null,\r\n      \"runnerup\": \"Georgia Tech\",\r\n      \"score\": \"82-73\"\r\n    },\r\n    {\r\n      \"champion\": \"Kansas\",\r\n      \"coach\": \"Bill Self\",\r\n      \"id\": \"2008\",\r\n      \"location\": \"San Antonio, Texas\",\r\n      \"replayUrl\": \"https://www.youtube.com/watch?v=Oo8ZAVaVUUQ&t=1s\",\r\n      \"runnerup\": \"Memphis\",\r\n      \"score\": \"75-68 \"\r\n    },\r\n    {\r\n      \"champion\": \"Connecticu\",\r\n      \"coach\": \"Jim Calhoun\",\r\n      \"id\": \"2011\",\r\n      \"location\": \"Houston, Texas\",\r\n      \"replayUrl\": null,\r\n      \"runnerup\": \"Butler\",\r\n      \"score\": \"53-41\"\r\n    },\r\n    {\r\n      \"champion\": \"Connecticu\",\r\n      \"coach\": \"Kevin Ollie\",\r\n      \"id\": \"2014\",\r\n      \"location\": \"Arlington, Texas\",\r\n      \"replayUrl\": null,\r\n      \"runnerup\": \"Kentucky\",\r\n      \"score\": \"60-54\"\r\n    },\r\n    {\r\n      \"champion\": \"Villanova\",\r\n      \"coach\": \"Jay Wright\",\r\n      \"id\": \"2016\",\r\n      \"location\": \"Houston, Texas\",\r\n      \"replayUrl\": \"https://www.youtube.com/watch?v=Q6fflHD73sw&t=4s\",\r\n      \"runnerup\": \"North Carolina\",\r\n      \"score\": \"77-74\"\r\n    },\r\n    {\r\n      \"champion\": \"Virginia\",\r\n      \"coach\": \"Tony Bennett\",\r\n      \"id\": \"2019\",\r\n      \"location\": \"Minneapolis, Minn.\",\r\n      \"replayUrl\": \"https://www.youtube.com/watch?v=7N9KYZrJpOc\",\r\n      \"runnerup\": \"Texas Tech\",\r\n      \"score\": \"85-77 \"\r\n    }\r\n  ],\r\n  \"players\": [],\r\n  \"teams\": [\r\n    {\r\n      \"cityLocation\": \"Austin\",\r\n      \"conference\": \"Big 12\",\r\n      \"currentLosses\": 6,\r\n      \"currentWins\": 22,\r\n      \"id\": 109,\r\n      \"key\": \"TX\",\r\n      \"logo\": \"https://s3-us-west-2.amazonaws.com/static.fantasydata.com/logos/ncaa/109.png\",\r\n      \"name\": \"Longhorns\",\r\n      \"school\": \"Texas\",\r\n      \"stadiumName\": \"Moody Center\",\r\n      \"stateLocation\": \"TX\"\r\n    },\r\n    {\r\n      \"cityLocation\": \"Lubbock\",\r\n      \"conference\": \"Big 12\",\r\n      \"currentLosses\": 12,\r\n      \"currentWins\": 16,\r\n      \"id\": 111,\r\n      \"key\": \"TXTECH\",\r\n      \"logo\": \"https://s3-us-west-2.amazonaws.com/static.fantasydata.com/logos/ncaa/111.png\",\r\n      \"name\": \"Red Raiders\",\r\n      \"school\": \"Texas Tech\",\r\n      \"stadiumName\": \"United Supermarkets \",\r\n      \"stateLocation\": \"TX\"\r\n    },\r\n    {\r\n      \"cityLocation\": \"Denton\",\r\n      \"conference\": \"Conference USA\",\r\n      \"currentLosses\": 6,\r\n      \"currentWins\": 23,\r\n      \"id\": 141,\r\n      \"key\": \"NTX\",\r\n      \"logo\": \"https://s3-us-west-2.amazonaws.com/static.fantasydata.com/logos/ncaa/141.png\",\r\n      \"name\": \"Mean Green\",\r\n      \"school\": \"North Texas\",\r\n      \"stadiumName\": \"UNT Coliseum\",\r\n      \"stateLocation\": \"TX\"\r\n    },\r\n    {\r\n      \"cityLocation\": \"College Station\",\r\n      \"conference\": \"Southeastern\",\r\n      \"currentLosses\": 7,\r\n      \"currentWins\": 21,\r\n      \"id\": 270,\r\n      \"key\": \"TXAM\",\r\n      \"logo\": \"https://s3-us-west-2.amazonaws.com/static.fantasydata.com/logos/ncaa/270.png\",\r\n      \"name\": \"Aggies\",\r\n      \"school\": \"Texas A&M\",\r\n      \"stadiumName\": \"Reed Arena\",\r\n      \"stateLocation\": \"TX\"\r\n    },\r\n    {\r\n      \"cityLocation\": \"Corpus Christi\",\r\n      \"conference\": \"Southland\",\r\n      \"currentLosses\": 10,\r\n      \"currentWins\": 19,\r\n      \"id\": 292,\r\n      \"key\": \"TAMU\",\r\n      \"logo\": \"https://s3-us-west-2.amazonaws.com/static.fantasydata.com/logos/ncaa/292.png\",\r\n      \"name\": \"Islanders\",\r\n      \"school\": \"Texas A&M-Corpus Chr\",\r\n      \"stadiumName\": \"American Bank Center\",\r\n      \"stateLocation\": \"TX\"\r\n    },\r\n    {\r\n      \"cityLocation\": \"Houston\",\r\n      \"conference\": \"Southwestern Athleti\",\r\n      \"currentLosses\": 17,\r\n      \"currentWins\": 11,\r\n      \"id\": 304,\r\n      \"key\": \"TXS\",\r\n      \"logo\": \"https://s3-us-west-2.amazonaws.com/static.fantasydata.com/logos/ncaa/304.png\",\r\n      \"name\": \"Tigers\",\r\n      \"school\": \"Texas Southern\",\r\n      \"stadiumName\": \"H&PE Arena\",\r\n      \"stateLocation\": \"TX\"\r\n    },\r\n    {\r\n      \"cityLocation\": \"San Marcos\",\r\n      \"conference\": \"Sun Belt\",\r\n      \"currentLosses\": 17,\r\n      \"currentWins\": 13,\r\n      \"id\": 332,\r\n      \"key\": \"TXST\",\r\n      \"logo\": \"https://s3-us-west-2.amazonaws.com/static.fantasydata.com/logos/ncaa/332.png\",\r\n      \"name\": \"Bobcats\",\r\n      \"school\": \"Texas State\",\r\n      \"stadiumName\": \"Strahan Coliseum\",\r\n      \"stateLocation\": \"TX\"\r\n    },\r\n    {\r\n      \"cityLocation\": \"Edinburg\",\r\n      \"conference\": \"Western Athletic\",\r\n      \"currentLosses\": 15,\r\n      \"currentWins\": 14,\r\n      \"id\": 350,\r\n      \"key\": \"UTRGV\",\r\n      \"logo\": \"https://s3-us-west-2.amazonaws.com/static.fantasydata.com/logos/ncaa/350.png\",\r\n      \"name\": \"Vaqueros\",\r\n      \"school\": \"Texas-Rio Grande Val\",\r\n      \"stadiumName\": \"UTRGV Fieldhouse\",\r\n      \"stateLocation\": \"TX\"\r\n    },\r\n    {\r\n      \"cityLocation\": \"Commerce\",\r\n      \"conference\": \"Southland\",\r\n      \"currentLosses\": 17,\r\n      \"currentWins\": 13,\r\n      \"id\": 392,\r\n      \"key\": \"TXAMC\",\r\n      \"logo\": \"https://s3-us-west-2.amazonaws.com/static.fantasydata.com/logos/ncaa/392.png\",\r\n      \"name\": \"Lions\",\r\n      \"school\": \"Texas A&M-Commerce\",\r\n      \"stadiumName\": \"The Field House\",\r\n      \"stateLocation\": \"TX\"\r\n    },\r\n    {\r\n      \"cityLocation\": null,\r\n      \"conference\": null,\r\n      \"currentLosses\": null,\r\n      \"currentWins\": null,\r\n      \"id\": 431,\r\n      \"key\": \"TXPB\",\r\n      \"logo\": \"https://s3-us-west-2.amazonaws.com/static.fantasydata.com/logos/ncaa/0.png\",\r\n      \"name\": \"Falcons\",\r\n      \"school\": \"Texas-Permian Basin\",\r\n      \"stadiumName\": null,\r\n      \"stateLocation\": null\r\n    },\r\n    {\r\n      \"cityLocation\": null,\r\n      \"conference\": null,\r\n      \"currentLosses\": null,\r\n      \"currentWins\": null,\r\n      \"id\": 621,\r\n      \"key\": \"ETXBAP\",\r\n      \"logo\": \"https://s3-us-west-2.amazonaws.com/static.fantasydata.com/logos/ncaa/0.png\",\r\n      \"name\": \"Tigers\",\r\n      \"school\": \"East Texas Baptist\",\r\n      \"stadiumName\": null,\r\n      \"stateLocation\": null\r\n    },\r\n    {\r\n      \"cityLocation\": null,\r\n      \"conference\": null,\r\n      \"currentLosses\": null,\r\n      \"currentWins\": null,\r\n      \"id\": 622,\r\n      \"key\": \"TXWESL\",\r\n      \"logo\": \"https://s3-us-west-2.amazonaws.com/static.fantasydata.com/logos/ncaa/0.png\",\r\n      \"name\": \"Rams\",\r\n      \"school\": \"Texas Wesleyan\",\r\n      \"stadiumName\": null,\r\n      \"stateLocation\": null\r\n    },\r\n    {\r\n      \"cityLocation\": null,\r\n      \"conference\": null,\r\n      \"currentLosses\": null,\r\n      \"currentWins\": null,\r\n      \"id\": 628,\r\n      \"key\": \"UTXT\",\r\n      \"logo\": \"https://s3-us-west-2.amazonaws.com/static.fantasydata.com/logos/ncaa/0.png\",\r\n      \"name\": \"Patriots\",\r\n      \"school\": \"Texas-Tyler\",\r\n      \"stadiumName\": null,\r\n      \"stateLocation\": null\r\n    },\r\n    {\r\n      \"cityLocation\": null,\r\n      \"conference\": null,\r\n      \"currentLosses\": null,\r\n      \"currentWins\": null,\r\n      \"id\": 686,\r\n      \"key\": \"TXLUT\",\r\n      \"logo\": \"https://s3-us-west-2.amazonaws.com/static.fantasydata.com/logos/ncaa/0.png\",\r\n      \"name\": \"Bulldogs\",\r\n      \"school\": \"Texas Lutheran\",\r\n      \"stadiumName\": null,\r\n      \"stateLocation\": null\r\n    },\r\n    {\r\n      \"cityLocation\": null,\r\n      \"conference\": null,\r\n      \"currentLosses\": null,\r\n      \"currentWins\": null,\r\n      \"id\": 766,\r\n      \"key\": \"TAMI\",\r\n      \"logo\": \"https://s3-us-west-2.amazonaws.com/static.fantasydata.com/logos/ncaa/0.png\",\r\n      \"name\": \"Dustdevils\",\r\n      \"school\": \"Texas A&M-Internatio\",\r\n      \"stadiumName\": null,\r\n      \"stateLocation\": null\r\n    },\r\n    {\r\n      \"cityLocation\": null,\r\n      \"conference\": null,\r\n      \"currentLosses\": null,\r\n      \"currentWins\": null,\r\n      \"id\": 900,\r\n      \"key\": \"UAT\",\r\n      \"logo\": \"https://s3-us-west-2.amazonaws.com/static.fantasydata.com/logos/ncaa/0.png\",\r\n      \"name\": \"Comets\",\r\n      \"school\": \"University of Texas \",\r\n      \"stadiumName\": null,\r\n      \"stateLocation\": null\r\n    },\r\n    {\r\n      \"cityLocation\": null,\r\n      \"conference\": null,\r\n      \"currentLosses\": null,\r\n      \"currentWins\": null,\r\n      \"id\": 1041,\r\n      \"key\": \"TAMT\",\r\n      \"logo\": \"https://s3-us-west-2.amazonaws.com/static.fantasydata.com/logos/ncaa/0.png\",\r\n      \"name\": \"Eagles\",\r\n      \"school\": \"Texas A&M-Texarkana\",\r\n      \"stadiumName\": null,\r\n      \"stateLocation\": null\r\n    },\r\n    {\r\n      \"cityLocation\": null,\r\n      \"conference\": null,\r\n      \"currentLosses\": null,\r\n      \"currentWins\": null,\r\n      \"id\": 1101,\r\n      \"key\": \"WTAM\",\r\n      \"logo\": \"https://s3-us-west-2.amazonaws.com/static.fantasydata.com/logos/ncaa/0.png\",\r\n      \"name\": \"Buffaloes\",\r\n      \"school\": \"West Texas A&M\",\r\n      \"stadiumName\": null,\r\n      \"stateLocation\": null\r\n    },\r\n    {\r\n      \"cityLocation\": null,\r\n      \"conference\": null,\r\n      \"currentLosses\": null,\r\n      \"currentWins\": null,\r\n      \"id\": 1155,\r\n      \"key\": \"TAMK\",\r\n      \"logo\": \"https://s3-us-west-2.amazonaws.com/static.fantasydata.com/logos/ncaa/0.png\",\r\n      \"name\": \"Javelinas\",\r\n      \"school\": \"Texas A&M-Kingsville\",\r\n      \"stadiumName\": null,\r\n      \"stateLocation\": null\r\n    },\r\n    {\r\n      \"cityLocation\": null,\r\n      \"conference\": null,\r\n      \"currentLosses\": null,\r\n      \"currentWins\": null,\r\n      \"id\": 1187,\r\n      \"key\": \"TEXCOL\",\r\n      \"logo\": \"https://s3-us-west-2.amazonaws.com/static.fantasydata.com/logos/ncaa/0.png\",\r\n      \"name\": \"Steers\",\r\n      \"school\": \"Texas College\",\r\n      \"stadiumName\": null,\r\n      \"stateLocation\": null\r\n    },\r\n    {\r\n      \"cityLocation\": null,\r\n      \"conference\": null,\r\n      \"currentLosses\": null,\r\n      \"currentWins\": null,\r\n      \"id\": 1202,\r\n      \"key\": \"UNTD\",\r\n      \"logo\": \"https://s3-us-west-2.amazonaws.com/static.fantasydata.com/logos/ncaa/0.png\",\r\n      \"name\": \"Trailblazers\",\r\n      \"school\": \"North Texas-Dallas\",\r\n      \"stadiumName\": null,\r\n      \"stateLocation\": null\r\n    }\r\n  ]\r\n}"
				}
			]
		},
		{
			"name": "Search by model",
			"event": [
				{
					"listen": "test",
					"script": {
						"exec": [
							"pm.test(\"Status test\", function () {\r",
							"    pm.response.to.have.status(200);\r",
							"});\r",
							"\r",
							"pm.test(\"Data in return\", function () {\r",
							"    pm.expect(pm.response.text()).to.include(\"data\");\r",
							"});\r",
							"\r",
							"pm.test(\"Returned correct instances\", function () {\r",
							"    var jsonData = pm.response.json();\r",
							"    pm.expect(jsonData.data[0].school).to.contains(\"Texas\");\r",
							"});"
						],
						"type": "text/javascript"
					}
				}
			],
			"request": {
				"method": "GET",
				"header": [],
				"url": {
					"raw": "api.marchmadnessmayhem.me/search/team/texas",
					"host": [
						"api",
						"marchmadnessmayhem",
						"me"
					],
					"path": [
						"search",
						"team",
						"texas"
					]
				}
			},
			"response": [
				{
					"name": "Search by model",
					"originalRequest": {
						"method": "GET",
						"header": [],
						"url": {
							"raw": "api.marchmadnessmayhem.me/search/team/texas",
							"host": [
								"api",
								"marchmadnessmayhem",
								"me"
							],
							"path": [
								"search",
								"team",
								"texas"
							]
						}
					},
					"_postman_previewlanguage": null,
					"header": null,
					"cookie": [],
					"body": "{\r\n  \"data\": [\r\n    {\r\n      \"cityLocation\": \"Austin\",\r\n      \"conference\": \"Big 12\",\r\n      \"currentLosses\": 6,\r\n      \"currentWins\": 22,\r\n      \"id\": 109,\r\n      \"key\": \"TX\",\r\n      \"logo\": \"https://s3-us-west-2.amazonaws.com/static.fantasydata.com/logos/ncaa/109.png\",\r\n      \"name\": \"Longhorns\",\r\n      \"school\": \"Texas\",\r\n      \"stadiumName\": \"Moody Center\",\r\n      \"stateLocation\": \"TX\"\r\n    },\r\n    {\r\n      \"cityLocation\": \"Lubbock\",\r\n      \"conference\": \"Big 12\",\r\n      \"currentLosses\": 12,\r\n      \"currentWins\": 16,\r\n      \"id\": 111,\r\n      \"key\": \"TXTECH\",\r\n      \"logo\": \"https://s3-us-west-2.amazonaws.com/static.fantasydata.com/logos/ncaa/111.png\",\r\n      \"name\": \"Red Raiders\",\r\n      \"school\": \"Texas Tech\",\r\n      \"stadiumName\": \"United Supermarkets \",\r\n      \"stateLocation\": \"TX\"\r\n    },\r\n    {\r\n      \"cityLocation\": \"Denton\",\r\n      \"conference\": \"Conference USA\",\r\n      \"currentLosses\": 6,\r\n      \"currentWins\": 23,\r\n      \"id\": 141,\r\n      \"key\": \"NTX\",\r\n      \"logo\": \"https://s3-us-west-2.amazonaws.com/static.fantasydata.com/logos/ncaa/141.png\",\r\n      \"name\": \"Mean Green\",\r\n      \"school\": \"North Texas\",\r\n      \"stadiumName\": \"UNT Coliseum\",\r\n      \"stateLocation\": \"TX\"\r\n    },\r\n    {\r\n      \"cityLocation\": \"College Station\",\r\n      \"conference\": \"Southeastern\",\r\n      \"currentLosses\": 7,\r\n      \"currentWins\": 21,\r\n      \"id\": 270,\r\n      \"key\": \"TXAM\",\r\n      \"logo\": \"https://s3-us-west-2.amazonaws.com/static.fantasydata.com/logos/ncaa/270.png\",\r\n      \"name\": \"Aggies\",\r\n      \"school\": \"Texas A&M\",\r\n      \"stadiumName\": \"Reed Arena\",\r\n      \"stateLocation\": \"TX\"\r\n    },\r\n    {\r\n      \"cityLocation\": \"Corpus Christi\",\r\n      \"conference\": \"Southland\",\r\n      \"currentLosses\": 10,\r\n      \"currentWins\": 19,\r\n      \"id\": 292,\r\n      \"key\": \"TAMU\",\r\n      \"logo\": \"https://s3-us-west-2.amazonaws.com/static.fantasydata.com/logos/ncaa/292.png\",\r\n      \"name\": \"Islanders\",\r\n      \"school\": \"Texas A&M-Corpus Chr\",\r\n      \"stadiumName\": \"American Bank Center\",\r\n      \"stateLocation\": \"TX\"\r\n    },\r\n    {\r\n      \"cityLocation\": \"Houston\",\r\n      \"conference\": \"Southwestern Athleti\",\r\n      \"currentLosses\": 17,\r\n      \"currentWins\": 11,\r\n      \"id\": 304,\r\n      \"key\": \"TXS\",\r\n      \"logo\": \"https://s3-us-west-2.amazonaws.com/static.fantasydata.com/logos/ncaa/304.png\",\r\n      \"name\": \"Tigers\",\r\n      \"school\": \"Texas Southern\",\r\n      \"stadiumName\": \"H&PE Arena\",\r\n      \"stateLocation\": \"TX\"\r\n    },\r\n    {\r\n      \"cityLocation\": \"San Marcos\",\r\n      \"conference\": \"Sun Belt\",\r\n      \"currentLosses\": 17,\r\n      \"currentWins\": 13,\r\n      \"id\": 332,\r\n      \"key\": \"TXST\",\r\n      \"logo\": \"https://s3-us-west-2.amazonaws.com/static.fantasydata.com/logos/ncaa/332.png\",\r\n      \"name\": \"Bobcats\",\r\n      \"school\": \"Texas State\",\r\n      \"stadiumName\": \"Strahan Coliseum\",\r\n      \"stateLocation\": \"TX\"\r\n    },\r\n    {\r\n      \"cityLocation\": \"Edinburg\",\r\n      \"conference\": \"Western Athletic\",\r\n      \"currentLosses\": 15,\r\n      \"currentWins\": 14,\r\n      \"id\": 350,\r\n      \"key\": \"UTRGV\",\r\n      \"logo\": \"https://s3-us-west-2.amazonaws.com/static.fantasydata.com/logos/ncaa/350.png\",\r\n      \"name\": \"Vaqueros\",\r\n      \"school\": \"Texas-Rio Grande Val\",\r\n      \"stadiumName\": \"UTRGV Fieldhouse\",\r\n      \"stateLocation\": \"TX\"\r\n    },\r\n    {\r\n      \"cityLocation\": \"Commerce\",\r\n      \"conference\": \"Southland\",\r\n      \"currentLosses\": 17,\r\n      \"currentWins\": 13,\r\n      \"id\": 392,\r\n      \"key\": \"TXAMC\",\r\n      \"logo\": \"https://s3-us-west-2.amazonaws.com/static.fantasydata.com/logos/ncaa/392.png\",\r\n      \"name\": \"Lions\",\r\n      \"school\": \"Texas A&M-Commerce\",\r\n      \"stadiumName\": \"The Field House\",\r\n      \"stateLocation\": \"TX\"\r\n    },\r\n    {\r\n      \"cityLocation\": null,\r\n      \"conference\": null,\r\n      \"currentLosses\": null,\r\n      \"currentWins\": null,\r\n      \"id\": 431,\r\n      \"key\": \"TXPB\",\r\n      \"logo\": \"https://s3-us-west-2.amazonaws.com/static.fantasydata.com/logos/ncaa/0.png\",\r\n      \"name\": \"Falcons\",\r\n      \"school\": \"Texas-Permian Basin\",\r\n      \"stadiumName\": null,\r\n      \"stateLocation\": null\r\n    },\r\n    {\r\n      \"cityLocation\": null,\r\n      \"conference\": null,\r\n      \"currentLosses\": null,\r\n      \"currentWins\": null,\r\n      \"id\": 621,\r\n      \"key\": \"ETXBAP\",\r\n      \"logo\": \"https://s3-us-west-2.amazonaws.com/static.fantasydata.com/logos/ncaa/0.png\",\r\n      \"name\": \"Tigers\",\r\n      \"school\": \"East Texas Baptist\",\r\n      \"stadiumName\": null,\r\n      \"stateLocation\": null\r\n    },\r\n    {\r\n      \"cityLocation\": null,\r\n      \"conference\": null,\r\n      \"currentLosses\": null,\r\n      \"currentWins\": null,\r\n      \"id\": 622,\r\n      \"key\": \"TXWESL\",\r\n      \"logo\": \"https://s3-us-west-2.amazonaws.com/static.fantasydata.com/logos/ncaa/0.png\",\r\n      \"name\": \"Rams\",\r\n      \"school\": \"Texas Wesleyan\",\r\n      \"stadiumName\": null,\r\n      \"stateLocation\": null\r\n    },\r\n    {\r\n      \"cityLocation\": null,\r\n      \"conference\": null,\r\n      \"currentLosses\": null,\r\n      \"currentWins\": null,\r\n      \"id\": 628,\r\n      \"key\": \"UTXT\",\r\n      \"logo\": \"https://s3-us-west-2.amazonaws.com/static.fantasydata.com/logos/ncaa/0.png\",\r\n      \"name\": \"Patriots\",\r\n      \"school\": \"Texas-Tyler\",\r\n      \"stadiumName\": null,\r\n      \"stateLocation\": null\r\n    },\r\n    {\r\n      \"cityLocation\": null,\r\n      \"conference\": null,\r\n      \"currentLosses\": null,\r\n      \"currentWins\": null,\r\n      \"id\": 686,\r\n      \"key\": \"TXLUT\",\r\n      \"logo\": \"https://s3-us-west-2.amazonaws.com/static.fantasydata.com/logos/ncaa/0.png\",\r\n      \"name\": \"Bulldogs\",\r\n      \"school\": \"Texas Lutheran\",\r\n      \"stadiumName\": null,\r\n      \"stateLocation\": null\r\n    },\r\n    {\r\n      \"cityLocation\": null,\r\n      \"conference\": null,\r\n      \"currentLosses\": null,\r\n      \"currentWins\": null,\r\n      \"id\": 766,\r\n      \"key\": \"TAMI\",\r\n      \"logo\": \"https://s3-us-west-2.amazonaws.com/static.fantasydata.com/logos/ncaa/0.png\",\r\n      \"name\": \"Dustdevils\",\r\n      \"school\": \"Texas A&M-Internatio\",\r\n      \"stadiumName\": null,\r\n      \"stateLocation\": null\r\n    },\r\n    {\r\n      \"cityLocation\": null,\r\n      \"conference\": null,\r\n      \"currentLosses\": null,\r\n      \"currentWins\": null,\r\n      \"id\": 900,\r\n      \"key\": \"UAT\",\r\n      \"logo\": \"https://s3-us-west-2.amazonaws.com/static.fantasydata.com/logos/ncaa/0.png\",\r\n      \"name\": \"Comets\",\r\n      \"school\": \"University of Texas \",\r\n      \"stadiumName\": null,\r\n      \"stateLocation\": null\r\n    },\r\n    {\r\n      \"cityLocation\": null,\r\n      \"conference\": null,\r\n      \"currentLosses\": null,\r\n      \"currentWins\": null,\r\n      \"id\": 1041,\r\n      \"key\": \"TAMT\",\r\n      \"logo\": \"https://s3-us-west-2.amazonaws.com/static.fantasydata.com/logos/ncaa/0.png\",\r\n      \"name\": \"Eagles\",\r\n      \"school\": \"Texas A&M-Texarkana\",\r\n      \"stadiumName\": null,\r\n      \"stateLocation\": null\r\n    },\r\n    {\r\n      \"cityLocation\": null,\r\n      \"conference\": null,\r\n      \"currentLosses\": null,\r\n      \"currentWins\": null,\r\n      \"id\": 1101,\r\n      \"key\": \"WTAM\",\r\n      \"logo\": \"https://s3-us-west-2.amazonaws.com/static.fantasydata.com/logos/ncaa/0.png\",\r\n      \"name\": \"Buffaloes\",\r\n      \"school\": \"West Texas A&M\",\r\n      \"stadiumName\": null,\r\n      \"stateLocation\": null\r\n    },\r\n    {\r\n      \"cityLocation\": null,\r\n      \"conference\": null,\r\n      \"currentLosses\": null,\r\n      \"currentWins\": null,\r\n      \"id\": 1155,\r\n      \"key\": \"TAMK\",\r\n      \"logo\": \"https://s3-us-west-2.amazonaws.com/static.fantasydata.com/logos/ncaa/0.png\",\r\n      \"name\": \"Javelinas\",\r\n      \"school\": \"Texas A&M-Kingsville\",\r\n      \"stadiumName\": null,\r\n      \"stateLocation\": null\r\n    },\r\n    {\r\n      \"cityLocation\": null,\r\n      \"conference\": null,\r\n      \"currentLosses\": null,\r\n      \"currentWins\": null,\r\n      \"id\": 1187,\r\n      \"key\": \"TEXCOL\",\r\n      \"logo\": \"https://s3-us-west-2.amazonaws.com/static.fantasydata.com/logos/ncaa/0.png\",\r\n      \"name\": \"Steers\",\r\n      \"school\": \"Texas College\",\r\n      \"stadiumName\": null,\r\n      \"stateLocation\": null\r\n    },\r\n    {\r\n      \"cityLocation\": null,\r\n      \"conference\": null,\r\n      \"currentLosses\": null,\r\n      \"currentWins\": null,\r\n      \"id\": 1202,\r\n      \"key\": \"UNTD\",\r\n      \"logo\": \"https://s3-us-west-2.amazonaws.com/static.fantasydata.com/logos/ncaa/0.png\",\r\n      \"name\": \"Trailblazers\",\r\n      \"school\": \"North Texas-Dallas\",\r\n      \"stadiumName\": null,\r\n      \"stateLocation\": null\r\n    }\r\n  ]\r\n}"
				}
			]
		}
	],
	"variable": [
		{
			"key": "player_id",
			"value": "7f2291a6-298b-44ce-9dde-21894f386fd3"
		}
	]
}