[
     {
      "year": "2022",
      "champion": "Kansas",
      "coach": "Bill Self",
      "score": "72-69",
      "runnerup": "North Carolina",
      "location": "New Orleans, La.",
      "replay": "Watch the full game",
      "replay_url": "https://www.youtube.com/watch?v=AIMOY6CoQKI"
     },
     {
      "year": "2021",
      "champion": "Baylor",
      "coach": "Scott Drew",
      "score": "86-70",
      "runnerup": "Gonzaga",
      "location": "Indianapolis, Ind.",
      "replay": "Watch the full game",
      "replay_url": "https://www.youtube.com/watch?v=p_jcM5IbILo"
     },
     {
      "year": "2020",
      "champion": "Canceled due to Covid-19",
      "coach": "--",
      "score": "--",
      "runnerup": "--",
      "location": "--"
     },
     {
      "year": "2019",
      "champion": "Virginia",
      "coach": "Tony Bennett",
      "score": "85-77 ",
      "runnerup": "Texas Tech",
      "location": "Minneapolis, Minn.",
      "replay": "Watch the full game",
      "replay_url": "https://www.youtube.com/watch?v=7N9KYZrJpOc"
     },
     {
      "year": "2018",
      "champion": "Villanova",
      "coach": "Jay Wright",
      "score": "79-62",
      "runnerup": "Michigan",
      "location": "San Antonio, Tex.",
      "replay": "Watch the full game",
      "replay_url": "https://www.youtube.com/watch?v=cbe_R73l4Lk&list=PLXCWZ2G0LOavdqSs58wZ7Mx2YohF9fYEK&index=87"
     },
     {
      "year": "2017",
      "champion": "North Carolina",
      "coach": "Roy Williams",
      "score": "71-65",
      "runnerup": "Gonzaga",
      "location": "Phoenix, Ariz.",
      "replay": "Watch the full game",
      "replay_url": "https://www.youtube.com/watch?v=XWEQFkIsLZc&t=2s"
     },
     {
      "year": "2016",
      "champion": "Villanova",
      "coach": "Jay Wright",
      "score": "77-74",
      "runnerup": "North Carolina",
      "location": "Houston, Texas",
      "replay": "Watch the full game",
      "replay_url": "https://www.youtube.com/watch?v=Q6fflHD73sw&t=4s"
     },
     {
      "year": "2015",
      "champion": "Duke",
      "coach": "Mike Krzyzewski",
      "score": "68-63",
      "runnerup": "Wisconsin",
      "location": "Indianapolis, Ind.",
      "replay": "Watch the full game",
      "replay_url": "https://www.youtube.com/watch?v=WxSZKIOGqlE&t=2s"
     },
     {
      "year": "2014",
      "champion": "Connecticut",
      "coach": "Kevin Ollie",
      "score": "60-54",
      "runnerup": "Kentucky",
      "location": "Arlington, Texas"
     },
     {
      "year": "2013",
      "champion": "Louisville",
      "coach": "Rick Pitino",
      "score": "82-76",
      "runnerup": "Michigan",
      "location": "Atlanta, Ga."
     },
     {
      "year": "2012",
      "champion": "Kentucky",
      "coach": "John Calipari",
      "score": "67-59",
      "runnerup": "Kansas",
      "location": "New Orleans, La.",
      "replay": "Watch the full game",
      "replay_url": "https://www.youtube.com/watch?v=jZj2UkglB9E&t=3s"
     },
     {
      "year": "2011",
      "champion": "Connecticut",
      "coach": "Jim Calhoun",
      "score": "53-41",
      "runnerup": "Butler",
      "location": "Houston, Texas"
     },
     {
      "year": "2010",
      "champion": "Duke",
      "coach": "Mike Krzyzewski",
      "score": "61-59",
      "runnerup": "Butler",
      "location": "Indianapolis, Ind.",
      "replay": "Watch the full game",
      "replay_url": "https://www.youtube.com/watch?v=vtnnjR7jZlY&t=2s"
     },
     {
      "year": "2009",
      "champion": "North Carolina",
      "coach": "Roy Williams",
      "score": "89-72",
      "runnerup": "Michigan State",
      "location": "Detroit, Mich.",
      "replay": "Watch the full game",
      "replay_url": "https://www.youtube.com/watch?v=QYO2enRyi4U&t=2s"
     },
     {
      "year": "2008",
      "champion": "Kansas",
      "coach": "Bill Self",
      "score": "75-68 ",
      "runnerup": "Memphis",
      "location": "San Antonio, Texas",
      "replay": "Watch the full game",
      "replay_url": "https://www.youtube.com/watch?v=Oo8ZAVaVUUQ&t=1s"
     },
     {
      "year": "2007",
      "champion": "Florida",
      "coach": "Billy Donovan",
      "score": "84-75",
      "runnerup": "Ohio State",
      "location": "Atlanta, Ga.",
      "replay": "Watch the full game",
      "replay_url": "https://www.youtube.com/watch?v=PLnhDGLfYLc&t=2223s"
     },
     {
      "year": "2006",
      "champion": "Florida",
      "coach": "Billy Donovan",
      "score": "73-57",
      "runnerup": "UCLA",
      "location": "Indianapolis, Ind.",
      "replay": "Watch the full game",
      "replay_url": "https://www.youtube.com/watch?v=iSPAFMnHjSk&t=6s"
     },
     {
      "year": "2005",
      "champion": "North Carolina",
      "coach": "Roy Williams",
      "score": "75-70",
      "runnerup": "Illinois",
      "location": "St. Louis, Mo."
     },
     {
      "year": "2004",
      "champion": "Connecticut",
      "coach": "Jim Calhoun",
      "score": "82-73",
      "runnerup": "Georgia Tech",
      "location": "San Antonio, Texas"
     },
     {
      "year": "2003",
      "champion": "Syracuse",
      "coach": "Jim Boeheim",
      "score": "81-78",
      "runnerup": "Kansas",
      "location": "New Orleans, La.",
      "replay": "Watch the full game",
      "replay_url": "https://www.youtube.com/watch?v=pl9cPZehbQw&t=2s"
     },
     {
      "year": "2002",
      "champion": "Maryland",
      "coach": "Gary Williams",
      "score": "64-52",
      "runnerup": "Indiana",
      "location": "Atlanta, Ga."
     },
     {
      "year": "2001",
      "champion": "Duke",
      "coach": "Mike Krzyzewski",
      "score": "82-72",
      "runnerup": "Arizona",
      "location": "Minneapolis, Minn."
     },
     {
      "year": "2000",
      "champion": "Michigan State",
      "coach": "Tom Izzo",
      "score": "89-76",
      "runnerup": "Florida",
      "location": "Indianapolis, Ind."
     },
     {
      "year": "1999",
      "champion": "Connecticut",
      "coach": "Jim Calhoun",
      "score": "77-74",
      "runnerup": "Duke",
      "location": "St. Petersburg, Fla.",
      "replay": "Watch the full game",
      "replay_url": "https://www.youtube.com/watch?v=D4eleuM7Flg&t=2s"
     },
     {
      "year": "1998",
      "champion": "Kentucky",
      "coach": "Tubby Smith",
      "score": "78-69",
      "runnerup": "Utah",
      "location": "San Antonio, Texas",
      "replay": "Watch the full game",
      "replay_url": "https://www.youtube.com/watch?v=YP4x5H4n5G8"
     },
     {
      "year": "1997",
      "champion": "Arizona",
      "coach": "Lute Olson",
      "score": "84-79 ",
      "runnerup": "Kentucky",
      "location": "Indianapolis, Ind.",
      "replay": "Watch the full game",
      "replay_url": "https://www.youtube.com/watch?v=TfHTGLpeOms&t=3s"
     },
     {
      "year": "1996",
      "champion": "Kentucky",
      "coach": "Rick Pitino",
      "score": "76-67",
      "runnerup": "Syracuse",
      "location": "East Rutherford, N.J."
     },
     {
      "year": "1995",
      "champion": "UCLA",
      "coach": "Jim Harrick",
      "score": "89-78",
      "runnerup": "Arkansas",
      "location": "Seattle, Wash."
     },
     {
      "year": "1994",
      "champion": "Arkansas",
      "coach": "Nolan Richardson",
      "score": "76-72",
      "runnerup": "Duke",
      "location": "Charlotte, N.C.",
      "replay": "Watch the full game",
      "replay_url": "https://www.youtube.com/watch?v=1o8BbNVNMPo"
     },
     {
      "year": "1993",
      "champion": "North Carolina",
      "coach": "Dean Smith",
      "score": "77-71",
      "runnerup": "Michigan",
      "location": "New Orleans, La.",
      "replay": "Watch the full game",
      "replay_url": "https://www.youtube.com/watch?v=8V0xlL7Zc6Y"
     },
     {
      "year": "1992",
      "champion": "Duke",
      "coach": "Mike Krzyzewski",
      "score": "71-51",
      "runnerup": "Michigan",
      "location": "Minneapolis, Minn."
     },
     {
      "year": "1991",
      "champion": "Duke",
      "coach": "Mike Krzyzewski",
      "score": "72-65",
      "runnerup": "Kansas",
      "location": "Indianapolis, Ind.",
      "replay": "Watch the full game",
      "replay_url": "https://www.youtube.com/watch?v=Y3zEz5-1fXY"
     },
     {
      "year": "1990",
      "champion": "UNLV",
      "coach": "Jerry Tarkanian",
      "score": "103-73",
      "runnerup": "Duke",
      "location": "Denver, Colo.",
      "replay": "Watch the full game",
      "replay_url": "https://www.youtube.com/watch?v=DPnA99aTMyk"
     },
     {
      "year": "1989",
      "champion": "Michigan",
      "coach": "Steve Fisher",
      "score": "80-79 ",
      "runnerup": "Seton Hall",
      "location": "Seattle, Wash."
     },
     {
      "year": "1988",
      "champion": "Kansas",
      "coach": "Larry Brown",
      "score": "83-79",
      "runnerup": "Oklahoma",
      "location": "Kansas City, Mo."
     },
     {
      "year": "1987",
      "champion": "Indiana",
      "coach": "Bob Knight",
      "score": "74-73",
      "runnerup": "Syracuse",
      "location": "New Orleans, La.",
      "replay": "Watch the full game",
      "replay_url": "https://www.youtube.com/watch?v=4wrh_hTDNtM&t=2s"
     },
     {
      "year": "1986",
      "champion": "Louisville",
      "coach": "Denny Crum",
      "score": "72-69",
      "runnerup": "Duke",
      "location": "Dallas, Texas"
     },
     {
      "year": "1985",
      "champion": "Villanova",
      "coach": "Rollie Massimino",
      "score": "66-64",
      "runnerup": "Georgetown",
      "location": "Lexington, Ky,",
      "replay": "Watch the full game",
      "replay_url": "https://www.youtube.com/watch?v=asziWjSFdfg&t=2s"
     },
     {
      "year": "1984",
      "champion": "Georgetown",
      "coach": "John Thompson",
      "score": "84-75",
      "runnerup": "Houston",
      "location": "Seattle, Wash.",
      "replay": "Watch the full game",
      "replay_url": "https://www.youtube.com/watch?v=egKfyb3p52g"
     },
     {
      "year": "1983",
      "champion": "North Carolina State",
      "coach": "Jim Valvano",
      "score": "54-52",
      "runnerup": "Houston",
      "location": "Albuquerque, N.M.",
      "replay": "Watch the full game",
      "replay_url": "https://www.youtube.com/watch?v=m8xDrRcWSBU&t=1s"
     },
     {
      "year": "1982",
      "champion": "North Carolina",
      "coach": "Dean Smith",
      "score": "63-62",
      "runnerup": "Georgetown",
      "location": "New Orleans, La.",
      "replay": "Watch the full game",
      "replay_url": "https://www.youtube.com/watch?v=x_uOBmzdUyI&t=3s"
     },
     {
      "year": "1981",
      "champion": "Indiana",
      "coach": "Bob Knight",
      "score": "63-50",
      "runnerup": "North Carolina",
      "location": "Philadelphia, Pa."
     },
     {
      "year": "1980",
      "champion": "Louisville",
      "coach": "Denny Crum",
      "score": "59-54",
      "runnerup": "UCLA",
      "location": "Indianapolis, Ind."
     },
     {
      "year": "1979",
      "champion": "Michigan State",
      "coach": "Jud Heathcote",
      "score": "75-64",
      "runnerup": "Indiana State",
      "location": "Salt Lake City, Utah",
      "replay": "Watch the full game",
      "replay_url": "https://www.youtube.com/watch?v=DlG7oSYL3Os&t=139s"
     },
     {
      "year": "1978",
      "champion": "Kentucky",
      "coach": "Joe Hall",
      "score": "94-88",
      "runnerup": "Duke",
      "location": "St. Louis, Mo."
     },
     {
      "year": "1977",
      "champion": "Marquette",
      "coach": "Al McGuire",
      "score": "67-59",
      "runnerup": "North Carolina",
      "location": "Atlanta, Ga."
     },
     {
      "year": "1976",
      "champion": "Indiana",
      "coach": "Bob Knight",
      "score": "86-68",
      "runnerup": "Michigan",
      "location": "Philadelphia, Pa.",
      "replay": "Watch the full game",
      "replay_url": "https://www.youtube.com/watch?v=TrWz7BAL5pE&t=1s"
     },
     {
      "year": "1975",
      "champion": "UCLA",
      "coach": "John Wooden",
      "score": "92-85",
      "runnerup": "Kentucky",
      "location": "San Diego, Calif."
     },
     {
      "year": "1974",
      "champion": "North Carolina State",
      "coach": "Norm Sloan",
      "score": "76-64",
      "runnerup": "Marquette",
      "location": "Greensboro, N.C."
     },
     {
      "year": "1973",
      "champion": "UCLA",
      "coach": "John Wooden",
      "score": "87-66",
      "runnerup": "Memphis State",
      "location": "St. Louis, Mo."
     },
     {
      "year": "1972",
      "champion": "UCLA",
      "coach": "John Wooden",
      "score": "81-76",
      "runnerup": "Florida State",
      "location": "Los Angeles, Calif."
     },
     {
      "year": "1971",
      "champion": "UCLA",
      "coach": "John Wooden",
      "score": "68-62",
      "runnerup": "Villanova",
      "location": "Houston, Texas"
     },
     {
      "year": "1970",
      "champion": "UCLA",
      "coach": "John Wooden",
      "score": "80-69",
      "runnerup": "Jacksonville",
      "location": "College Park, Md."
     },
     {
      "year": "1969",
      "champion": "UCLA",
      "coach": "John Wooden",
      "score": "92-72",
      "runnerup": "Purdue",
      "location": "Louisville, Ky."
     },
     {
      "year": "1968",
      "champion": "UCLA",
      "coach": "John Wooden",
      "score": "78-55",
      "runnerup": "North Carolina",
      "location": "Los Angeles, Calif."
     },
     {
      "year": "1967",
      "champion": "UCLA",
      "coach": "John Wooden",
      "score": "79-64",
      "runnerup": "Dayton",
      "location": "Louisville, Ky.",
      "replay": "Watch the full game",
      "replay_url": "https://www.youtube.com/watch?v=NXUkJH1CJAQ"
     },
     {
      "year": "1966",
      "champion": "UTEP",
      "coach": "Don Haskins",
      "score": "72-65",
      "runnerup": "Kentucky",
      "location": "College Park, Md.",
      "replay": "Watch the full game",
      "replay_url": "https://www.youtube.com/watch?v=R9vqNL4dXBY&t=4s"
     },
     {
      "year": "1965",
      "champion": "UCLA",
      "coach": "John Wooden",
      "score": "91-80",
      "runnerup": "Michigan",
      "location": "Portland, Ore."
     },
     {
      "year": "1964",
      "champion": "UCLA",
      "coach": "John Wooden",
      "score": "98-83",
      "runnerup": "Duke",
      "location": "Kansas City, Mo."
     },
     {
      "year": "1963",
      "champion": "Loyola Chicago",
      "coach": "George Ireland",
      "score": "60-58 ",
      "runnerup": "Cincinnati",
      "location": "Louisville, Ky."
     },
     {
      "year": "1962",
      "champion": "Cincinnati",
      "coach": "Ed Jucker",
      "score": "71-59",
      "runnerup": "Ohio State",
      "location": "Louisville, Ky."
     },
     {
      "year": "1961",
      "champion": "Cincinnati",
      "coach": "Ed Jucker",
      "score": "70-65 ",
      "runnerup": "Ohio State",
      "location": "Kansas City, Mo."
     },
     {
      "year": "1960",
      "champion": "Ohio State",
      "coach": "Fred Taylor",
      "score": "75-55",
      "runnerup": "California",
      "location": "Daly City, Calif."
     },
     {
      "year": "1959",
      "champion": "California",
      "coach": "Pete Newell",
      "score": "71-70",
      "runnerup": "West Virginia",
      "location": "Louisville, Ky."
     },
     {
      "year": "1958",
      "champion": "Kentucky",
      "coach": "Adolph Rupp",
      "score": "84-72",
      "runnerup": "Seattle",
      "location": "Louisville, Ky."
     },
     {
      "year": "1957",
      "champion": "North Carolina",
      "coach": "Frank McGuire",
      "score": "54-53 ",
      "runnerup": "Kansas",
      "location": "Kansas City, Mo."
     },
     {
      "year": "1956",
      "champion": "San Francisco",
      "coach": "Phil Woolpert",
      "score": "83-71",
      "runnerup": "Iowa",
      "location": "Evanston, Ill."
     },
     {
      "year": "1955",
      "champion": "San Francisco",
      "coach": "Phil Woolpert",
      "score": "77-63",
      "runnerup": "LaSalle",
      "location": "Kansas City, Mo."
     },
     {
      "year": "1954",
      "champion": "La Salle",
      "coach": "Ken Loeffler",
      "score": "92-76",
      "runnerup": "Bradley",
      "location": "Kansas City, Mo."
     },
     {
      "year": "1953",
      "champion": "Indiana",
      "coach": "Branch McCracken",
      "score": "69-68",
      "runnerup": "Kansas",
      "location": "Kansas City, Mo."
     },
     {
      "year": "1952",
      "champion": "Kansas",
      "coach": "Phog Allen",
      "score": "80-63",
      "runnerup": "St. John's",
      "location": "Seattle, Wash."
     },
     {
      "year": "1951",
      "champion": "Kentucky",
      "coach": "Adolph Rupp",
      "score": "68-58",
      "runnerup": "Kansas State",
      "location": "Minneapolis, Minn."
     },
     {
      "year": "1950",
      "champion": "City College of New York",
      "coach": "Nat Holman",
      "score": "71-68",
      "runnerup": "Bradley",
      "location": "New York, N.Y."
     },
     {
      "year": "1949",
      "champion": "Kentucky",
      "coach": "Adolph Rupp",
      "score": "46-36",
      "runnerup": "Oklahoma A&M",
      "location": "Seattle, Wash."
     },
     {
      "year": "1948",
      "champion": "Kentucky",
      "coach": "Adolph Rupp",
      "score": "58-42",
      "runnerup": "Baylor",
      "location": "New York, N.Y."
     },
     {
      "year": "1947",
      "champion": "Holy Cross",
      "coach": "Doggie Julian",
      "score": "58-47",
      "runnerup": "Oklahoma",
      "location": "New York, N.Y."
     },
     {
      "year": "1946",
      "champion": "Oklahoma State",
      "coach": "Henry Iba",
      "score": "43-40",
      "runnerup": "North Carolina",
      "location": "New York, N.Y."
     },
     {
      "year": "1945",
      "champion": "Oklahoma State",
      "coach": "Henry Iba",
      "score": "49-45",
      "runnerup": "NYU",
      "location": "New York, N.Y."
     },
     {
      "year": "1944",
      "champion": "Utah",
      "coach": "Vadal Peterson",
      "score": "42-40 ",
      "runnerup": "Dartmouth",
      "location": "New York, N.Y."
     },
     {
      "year": "1943",
      "champion": "Wyoming",
      "coach": "Everett Shelton",
      "score": "46-34",
      "runnerup": "Georgetown",
      "location": "New York, N.Y."
     },
     {
      "year": "1942",
      "champion": "Stanford",
      "coach": "Everett Dean",
      "score": "53-38",
      "runnerup": "Dartmouth",
      "location": "Kansas City, Mo."
     },
     {
      "year": "1941",
      "champion": "Wisconsin",
      "coach": "Bud Foster",
      "score": "39-34",
      "runnerup": "Washington State",
      "location": "Kansas City, Mo."
     },
     {
      "year": "1940",
      "champion": "Indiana",
      "coach": "Branch McCracken",
      "score": "60-42",
      "runnerup": "Kansas",
      "location": "Kansas City, Mo."
     },
     {
      "year": "1939",
      "champion": "Oregon",
      "coach": "Howard Hobson",
      "score": "46-33",
      "runnerup": "Ohio State",
      "location": "Evanston, Ill."
     }
]
